STAT 413/613 Homework: Tidy Text
…
As the plot, the ratio of each nrc sentiment in each block of 500 lines of each book is quite similar. Since a lot of words from the last 500-line block of text the words are not in nrc, the values drop off so suddenly at the end.

Using bing, create a new data frame with the counts of the positive and negative sentiment words for each book.

Show the top 20 most frequent words across both books along with their book, sentiment, and count, in descending order by count.

What are the positive words in the list of top 20?

books_df %>% 
  inner_join(get_sentiments("bing"), by = "word") %>% 
  count(book, word, sentiment, sort = TRUE) %>% 
  ungroup()-> count_bing_sentiment
count_bing_sentiment

## # A tibble: 3,372 x 4
##    book                                    word   sentiment     n
##    <chr>                                   <chr>  <chr>     <int>
##  1 The Quest of the Silver Fleece: A Novel miss   negative    467
##  2 The Quest of the Silver Fleece: A Novel slowly negative    124
##  3 The Quest of the Silver Fleece: A Novel dark   negative     96
##  4 The Jungle                              poor   negative     80
##  5 The Jungle                              cold   negative     79
##  6 The Jungle                              hard   negative     61
##  7 The Jungle                              lost   negative     61
##  8 The Jungle                              wild   negative     55
##  9 The Quest of the Silver Fleece: A Novel love   positive     54
## 10 The Jungle                              fell   negative     51
## # ... with 3,362 more rows
…
The plot at the bottom shows that there is nothing very different after removing the miss. In other words, removing miss did not bring influence in the analysis.

2 tf-idf for Mark Twains books

Use a single call to download all the following complete books at once from author Mark Twain from Project Gutenberg

Use the meta_fields argument to include the Book title as part of the download

Huckleberry Finn, Tom Sawyer , Connecticut Yankee in King Arthurs Court, Life on the Mississippi , Prince and the Pauper, and A Tramp Abroad

# find the books
gutenberg_works() %>%
  filter(str_detect(author,"Twain"))

## # A tibble: 144 x 8
##    gutenberg_id title  author  gutenberg_autho~ language gutenberg_books~ rights
##           <int> <chr>  <chr>              <int> <chr>    <chr>            <chr> 
##  1           70 What ~ Twain,~               53 en       <NA>             Publi~
##  2           74 The A~ Twain,~               53 en       Banned Books fr~ Publi~
##  3           76 Adven~ Twain,~               53 en       Best Books Ever~ Publi~
##  4           86 A Con~ Twain,~               53 en       Precursors of S~ Publi~
##  5           91 Tom S~ Twain,~               53 en       <NA>             Publi~
##  6           93 Tom S~ Twain,~               53 en       <NA>             Publi~
##  7          102 The T~ Twain,~               53 en       <NA>             Publi~
##  8          119 A Tra~ Twain,~               53 en       <NA>             Publi~
##  9          142 The $~ Twain,~               53 en       <NA>             Publi~
## 10          245 Life ~ Twain,~               53 en       <NA>             Publi~
## # ... with 134 more rows, and 1 more variable: has_text <lgl>
…
## [1] 56759     6

Calculate the tf-idf

Save back to the data frame.

twain_tf_df %>%
  bind_tf_idf(word, title, n) ->
  twain_tf_idf

twain_tf_idf

## # A tibble: 56,759 x 6
##    title                                       word      n     tf   idf tf_idf
##    <chr>                                       <fct> <int>  <dbl> <dbl>  <dbl>
##  1 A Tramp Abroad                              the    9915 0.0622     0      0
##  2 Life on the Mississippi                     the    9175 0.0623     0      0
##  3 Adventures of Huckleberry Finn              and    6374 0.0563     0      0
##  4 A Tramp Abroad                              and    6241 0.0392     0      0
##  5 A Connecticut Yankee in King Arthur's Court the    6091 0.0511     0      0
##  6 Life on the Mississippi                     and    5966 0.0405     0      0
##  7 A Connecticut Yankee in King Arthur's Court and    5551 0.0466     0      0
##  8 Adventures of Huckleberry Finn              the    4913 0.0434     0      0
##  9 A Tramp Abroad                              a      4864 0.0305     0      0
## 10 A Tramp Abroad                              of     4705 0.0295     0      0
## # ... with 56,749 more rows
…
